DataPrep
…
# View updated df_ego with h-index and i10-index
# View(df_ego)

#saving df_ego with h-index so we don't need to scrape every time
fsave(df_ego, file = NULL, location = "/Users/ghislaine/Downloads/Github/Social Networks/data/processed/")

#load df_ego with h-index
fload("/Users/ghislaine/Downloads/Github/Social Networks/data/processed/20260123df_ego.rda")

## # A tibble: 458 × 35
##    naam   id    initials first_name particle last_name maiden_name gender origin
##    <chr>  <chr> <chr>    <chr>      <chr>    <chr>     <chr>       <chr>  <chr> 
##  1 Aat L… http… <NA>     Aat        <NA>     Liefbroer <NA>        male   Neder…
##  2 Agnie… http… <NA>     Agnieszka  <NA>     Kanas     <NA>        female Neder…
##  3 Albor… http… <NA>     Alborno    <NA>     Barra Go… <NA>        male   <NA>  
##  4 Alex … http… <NA>     Alex       van      Venrooij  <NA>        male   <NA>  
##  5 Alexa… http… <NA>     Alexandra  <NA>     Ciausescu <NA>        female <NA>  
##  6 Alexa… http… <NA>     Alexandra  <NA>     Greene    <NA>        female Neder…
##  7 Alexa… http… <NA>     Alexandra  <NA>     Pior      <NA>        female <NA>  
##  8 Alice… http… <NA>     Alice      de       Boer      <NA>        female <NA>  
##  9 Aliss… http… <NA>     Alissa     van      Zijl      <NA>        female <NA>  
## 10 Amber… http… <NA>     Amber      <NA>     Vellinga  Dings       female Friese
## # ℹ 448 more rows
## # ℹ 26 more variables: dutch <lgl>, email_adres.22 <chr>,
## #   universiteit.22 <chr>, functie.22 <chr>, discipline.22 <chr>,
## #   email_adres.24 <chr>, universiteit.24 <chr>, functie.24 <chr>,
## #   discipline.24 <chr>, email_adres.25 <chr>, universiteit.25 <chr>,
## #   functie.25 <chr>, discipline.25 <chr>, has_oa_id <lgl>, funcs <dbl>,
## #   h_index <dbl>, i10_index <dbl>, works_count <int>, cited_by_count <int>, …
…
