lab4
…
## 5 https://openalex… The … The moral e… <df>   Abst… 2023-12-26       Soci… http…
## 6 https://openalex… A sy… A systemati… <df>   Abst… 2024-04-04       Beha… http…
## 7 https://openalex… Sign… Signals of … <df>   Mech… 2023-09-15       <NA>  <NA> 
## 8 https://openalex… Trus… Trust in th… <df>   Many… 2024-04-04       <NA>  <NA> 
## 9 https://openalex… A Sy… A Systemati… <df>   Shor… 2022-04-04       <NA>  <NA> 
## # ℹ 30 more variables: host_organization <chr>, issn_l <chr>, url <chr>,
## #   pdf_url <chr>, license <chr>, version <chr>, first_page <chr>,
## #   last_page <chr>, volume <chr>, issue <chr>, is_oa <lgl>,
## #   is_oa_anywhere <lgl>, oa_status <chr>, oa_url <chr>,
## #   any_repository_has_fulltext <lgl>, language <chr>, grants <list>,
## #   cited_by_count <int>, counts_by_year <list>, publication_year <int>,
## #   cited_by_api_url <chr>, ids <list>, doi <chr>, type <chr>, …
## 
## $data$works[[2]]
## # A tibble: 306 × 38
##    id               title display_name author ab    publication_date so    so_id
##    <chr>            <chr> <chr>        <list> <chr> <chr>            <chr> <chr>
##  1 https://openale… Stic… Sticking to… <df>   This… 2006-03-01       Info… http…
##  2 https://openale… Surv… Surveying t… <df>   Purp… 2010-06-08       Busi… http…
##  3 https://openale… Dyna… Dynamics of… <df>   Intr… 2015-09-15       Medi… http…
##  4 https://openale… A PA… A PACS matu… <df>   With… 2009-02-01       Inte… http…
##  5 https://openale… The … The Joint A… <df>   Heal… 2018-02-01       Heal… http…
##  6 https://openale… Purc… Purchasing … <df>   Purp… 2015-05-11       Indu… http…
##  7 https://openale… A ca… A call for … <df>   The … 2018-06-20       Heal… http…
##  8 https://openale… Has … Has the COV… <df>   The … 2022-11-20       Inte… http…
##  9 https://openale… E-pr… E-procureme… <df>   We e… 2007-05-01       Jour… http…
## 10 https://openale… PLM … PLM roadmap… <df>   Prod… 2006-01-01       Inte… http…
## # ℹ 296 more rows
## # ℹ 30 more variables: host_organization <chr>, issn_l <chr>, url <chr>,
## #   pdf_url <chr>, license <chr>, version <chr>, first_page <chr>,
## #   last_page <chr>, volume <chr>, issue <chr>, is_oa <lgl>,
## #   is_oa_anywhere <lgl>, oa_status <chr>, oa_url <chr>,
## #   any_repository_has_fulltext <lgl>, language <chr>, grants <list>,
## #   cited_by_count <int>, counts_by_year <list>, publication_year <int>, …
## 
## $data$works[[3]]
## # A tibble: 34 × 38
##    id               title display_name author ab    publication_date so    so_id
##    <chr>            <chr> <chr>        <list> <chr> <chr>            <chr> <chr>
##  1 https://openale… Gend… Gender Ideo… <df>   The … 2018-01-11       Jour… http…
##  2 https://openale… Gend… Gender equi… <df>   Fert… 2008-02-29       Demo… http…
##  3 https://openale… L’im… L’impact su… <df>   The … 2011-10-12       Euro… http…
##  4 https://openale… The … The Influen… <df>   Wome… 2012-04-26       Euro… http…
##  5 https://openale… Pref… Preferences… <df>   Comp… 2010-03-01       Popu… http…
##  6 https://openale… Mult… Multidimens… <df>   In t… 2023-02-27       Gend… http…
##  7 https://openale… Use … Use of chil… <df>   This… 2014-01-01       RAND… http…
##  8 https://openale… Labo… Labour Forc… <df>   This… 2015-08-12       Euro… http…
##  9 https://openale… How … How do educ… <df>   Fert… 2013-10-30       Demo… http…
## 10 https://openale… Non-… Non-Standar… <df>   Jour… 2014-11-13       Soci… http…
## # ℹ 24 more rows
## # ℹ 30 more variables: host_organization <chr>, issn_l <chr>, url <chr>,
## #   pdf_url <chr>, license <chr>, version <chr>, first_page <chr>,
## #   last_page <chr>, volume <chr>, issue <chr>, is_oa <lgl>,
## #   is_oa_anywhere <lgl>, oa_status <chr>, oa_url <chr>,
## #   any_repository_has_fulltext <lgl>, language <chr>, grants <list>,
## #   cited_by_count <int>, counts_by_year <list>, publication_year <int>, …
## 
## $data$works[[4]]
## # A tibble: 23 × 38
##    id               title display_name author ab    publication_date so    so_id
##    <chr>            <chr> <chr>        <list> <chr> <chr>            <chr> <chr>
##  1 https://openale… Inte… Intergroup … <df>   "Acc… 2010-12-01       Soci… http…
##  2 https://openale… Kudo… Kudos make … <df>   "Str… 2023-01-01       Soci… http…
##  3 https://openale… Xeno… Xenophobia … <df>   "Jou… 2011-07-10       Euro… http…
##  4 https://openale… Awar… Awareness a… <df>   "The… 2024-02-01       Fron… http…
##  5 https://openale… How … How Educati… <df>   "Jou… 2013-12-18       Inte… http…
##  6 https://openale… Glob… Globalizati… <df>   "Jou… 2012-10-26       Euro… http…
##  7 https://openale… Runn… Running Tog… <df>   "We … 2022-03-16       Fron… http…
##  8 https://openale… Own … Own Culture… <df>   "To … 2012-09-04       Inte… http…
##  9 https://openale… The … The popular… <df>   "Thi… 2008-01-01       <NA>  <NA> 
## 10 https://openale… A Ma… A Macro-Soc… <df>   "Rel… 2013-10-09       Euro… http…
## # ℹ 13 more rows
## # ℹ 30 more variables: host_organization <chr>, issn_l <chr>, url <chr>,
## #   pdf_url <chr>, license <chr>, version <chr>, first_page <chr>,
## #   last_page <chr>, volume <chr>, issue <chr>, is_oa <lgl>,
## #   is_oa_anywhere <lgl>, oa_status <chr>, oa_url <chr>,
## #   any_repository_has_fulltext <lgl>, language <chr>, grants <list>,
## #   cited_by_count <int>, counts_by_year <list>, publication_year <int>, …
## 
## $data$works[[5]]
## # A tibble: 35 × 38
##    id               title display_name author ab    publication_date so    so_id
##    <chr>            <chr> <chr>        <list> <chr> <chr>            <chr> <chr>
##  1 https://openale… Tren… Trends in s… <df>   "Cul… 2022-03-01       Adva… http…
##  2 https://openale… Expl… Explaining … <df>   "Abs… 2021-05-13       Popu… http…
##  3 https://openale… Fami… Family Stru… <df>   "An … 2018-01-24       Euro… http…
##  4 https://openale… Leav… Leaving and… <df>   "Obj… 2018-11-30       Jour… http…
##  5 https://openale… The … The educati… <df>   "Bac… 2023-02-03       Demo… http…
##  6 https://openale… The … The educati… <df>   "Abs… 2024-03-30       Jour… http…
##  7 https://openale… Step… Stepfamily … <df>   "Abs… 2020-07-08       Jour… http…
##  8 https://openale… The … The impact … <df>   "Abs… 2019-11-13       Popu… http…
##  9 https://openale… Lijs… Lijst der V… <df>    <NA> 1920-01-01       Spri… http…
## 10 https://openale… Gevo… Gevolgen so… <df>   "In … 2018-07-01       Soci… http…
## # ℹ 25 more rows
## # ℹ 30 more variables: host_organization <chr>, issn_l <chr>, url <chr>,
## #   pdf_url <chr>, license <chr>, version <chr>, first_page <chr>,
## #   last_page <chr>, volume <chr>, issue <chr>, is_oa <lgl>,
## #   is_oa_anywhere <lgl>, oa_status <chr>, oa_url <chr>,
## #   any_repository_has_fulltext <lgl>, language <chr>, grants <list>,
## #   cited_by_count <int>, counts_by_year <list>, publication_year <int>, …
## 
## $data$works[[6]]
…
## 13 https://openale… Unde… Understandi… <df>   Soci… 2024-02-23       Fron… http…
## 14 https://openale… Vero… Veroordeeld… <df>   Eerd… 2017-05-01       Tijd… http…
## 15 https://openale… Vrou… Vrouwen in … <df>   Wome… 2019-03-01       Mens… http…
## 16 https://openale… Poli… Political E… <df>   Abst… 2023-04-10       Inte… http…
## 17 https://openale… Corr… Corrigendum… <df>   <NA>  2020-10-06       Euro… http…
## # ℹ 30 more variables: host_organization <chr>, issn_l <chr>, url <chr>,
## #   pdf_url <chr>, license <chr>, version <chr>, first_page <chr>,
## #   last_page <chr>, volume <chr>, issue <chr>, is_oa <lgl>,
## #   is_oa_anywhere <lgl>, oa_status <chr>, oa_url <chr>,
## #   any_repository_has_fulltext <lgl>, language <chr>, grants <list>,
## #   cited_by_count <int>, counts_by_year <list>, publication_year <int>,
## #   cited_by_api_url <chr>, ids <list>, doi <chr>, type <chr>, …
## 
## $data$works[[7]]
## # A tibble: 156 × 38
##    id               title display_name author ab    publication_date so    so_id
##    <chr>            <chr> <chr>        <list> <chr> <chr>            <chr> <chr>
##  1 https://openale… The … The reliabi… <df>   To o… 2012-10-23       Inte… http…
##  2 https://openale… Gend… Gender diff… <df>   Wome… 2006-03-01       Jour… http…
##  3 https://openale… The … The effects… <df>   This… 2006-12-01       The … http…
##  4 https://openale… Moti… Motivation … <df>   In r… 2010-04-01       Anna… http…
##  5 https://openale… Rank… RankProd 2.… <df>   The … 2017-05-08       Bioi… http…
##  6 https://openale… Exac… Exact p-val… <df>   The … 2017-01-25       BMC … http…
##  7 https://openale… When… When size m… <df>   To i… 2016-10-28       Inte… http…
##  8 https://openale… Vali… Validity of… <df>   Main… 2008-03-01       Appe… http…
##  9 https://openale… Reli… Religion in… <df>   <NA>  1999-01-01       <NA>  <NA> 
## 10 https://openale… Soci… Social Copi… <df>   Expr… 2012-06-28       Jour… http…
## # ℹ 146 more rows
## # ℹ 30 more variables: host_organization <chr>, issn_l <chr>, url <chr>,
## #   pdf_url <chr>, license <chr>, version <chr>, first_page <chr>,
## #   last_page <chr>, volume <chr>, issue <chr>, is_oa <lgl>,
## #   is_oa_anywhere <lgl>, oa_status <chr>, oa_url <chr>,
## #   any_repository_has_fulltext <lgl>, language <chr>, grants <list>,
## #   cited_by_count <int>, counts_by_year <list>, publication_year <int>, …
## 
## $data$works[[8]]
## # A tibble: 113 × 38
##    id               title display_name author ab    publication_date so    so_id
##    <chr>            <chr> <chr>        <list> <chr> <chr>            <chr> <chr>
##  1 https://openale… The … The impact … <df>   Up t… 2009-07-01       Acta… http…
##  2 https://openale… Ethn… Ethnic Dive… <df>   This… 2009-04-21       Scan… http…
##  3 https://openale… Cont… Context Mat… <df>   This… 2010-02-21       Euro… http…
##  4 https://openale… Yout… Youth Labou… <df>   Youn… 2013-08-05       Euro… http…
##  5 https://openale… Educ… Education a… <df>   Jour… 2008-03-17       Euro… http…
##  6 https://openale… Ineq… Inequality … <df>   This… 2016-04-06       Euro… http…
##  7 https://openale… Expl… Explaining … <df>   In t… 2011-07-01       Soci… http…
##  8 https://openale… Well… Well begun,… <df>   This… 2006-09-01       Work… http…
##  9 https://openale… Educ… Educational… <df>   Prio… 2010-12-22       Nonp… http…
## 10 https://openale… Empl… Employment … <df>   This… 2010-12-01       Rese… http…
## # ℹ 103 more rows
## # ℹ 30 more variables: host_organization <chr>, issn_l <chr>, url <chr>,
## #   pdf_url <chr>, license <chr>, version <chr>, first_page <chr>,
## #   last_page <chr>, volume <chr>, issue <chr>, is_oa <lgl>,
## #   is_oa_anywhere <lgl>, oa_status <chr>, oa_url <chr>,
## #   any_repository_has_fulltext <lgl>, language <chr>, grants <list>,
## #   cited_by_count <int>, counts_by_year <list>, publication_year <int>, …
## 
## $data$works[[9]]
## # A tibble: 21 × 38
##    id               title display_name author ab    publication_date so    so_id
##    <chr>            <chr> <chr>        <list> <chr> <chr>            <chr> <chr>
##  1 https://openale… How … How do mino… <df>   Alth… 2024-06-18       Ethn… http…
##  2 https://openale… The … The lived e… <df>   How … 2020-05-27       Jour… http…
##  3 https://openale… Dyna… Dynamics in… <df>   This… 2016-10-25       Jour… http…
##  4 https://openale… Succ… Succeeding … <df>   Abst… 2024-03-25       Euro… http…
##  5 https://openale… Stru… Structural … <df>   The … 2019-10-14       Jour… http…
##  6 https://openale… A co… A cosmopoli… <df>   Rece… 2022-07-13       Ethn… http…
##  7 https://openale… “It … “It is for … <df>   In W… 2023-10-27       Jour… http…
##  8 https://openale… Poli… Political T… <df>   Abst… 2024-01-03       Inte… http…
##  9 https://openale… The … The Good an… <df>   Abst… 2022-10-14       Jour… http…
## 10 https://openale… Do r… Do religiou… <df>   This… 2021-12-20       Ethn… http…
## # ℹ 11 more rows
## # ℹ 30 more variables: host_organization <chr>, issn_l <chr>, url <chr>,
## #   pdf_url <chr>, license <chr>, version <chr>, first_page <chr>,
## #   last_page <chr>, volume <chr>, issue <chr>, is_oa <lgl>,
## #   is_oa_anywhere <lgl>, oa_status <chr>, oa_url <chr>,
## #   any_repository_has_fulltext <lgl>, language <chr>, grants <lgl>,
## #   cited_by_count <int>, counts_by_year <list>, publication_year <int>, …
## 
## $data$works[[10]]
## # A tibble: 26 × 38
##    id               title display_name author ab    publication_date so    so_id
##    <chr>            <chr> <chr>        <list> <chr> <chr>            <chr> <chr>
##  1 https://openale… The … The politic… <df>   Mino… 2024-06-14       Ethn… http…
##  2 https://openale… Re-U… Re-Understa… <df>   Much… 2018-07-13       Gend… http…
##  3 https://openale… How … How do mino… <df>   Alth… 2024-06-18       Ethn… http…
##  4 https://openale… How … How Politie… <df>   Prev… 2019-02-12       Euro… http…
##  5 https://openale… Expl… Explaining … <df>   Publ… 2020-05-19       Gend… http…
##  6 https://openale… Reje… Rejecting h… <df>   Publ… 2021-03-01       Soci… http…
##  7 https://openale… Wher… Where are t… <df>   <NA>  2020-01-01       <NA>  <NA> 
##  8 https://openale… Supp… Support for… <df>   Publ… 2019-06-01       Euro… http…
##  9 https://openale… Excl… Exclusionar… <df>   Coun… 2022-01-05       Inte… http…
## 10 https://openale… What… What Gender… <df>   Abst… 2022-03-09       Soci… http…
## # ℹ 16 more rows
## # ℹ 30 more variables: host_organization <chr>, issn_l <chr>, url <chr>,
## #   pdf_url <chr>, license <chr>, version <chr>, first_page <chr>,
## #   last_page <chr>, volume <chr>, issue <chr>, is_oa <lgl>,
## #   is_oa_anywhere <lgl>, oa_status <chr>, oa_url <chr>,
## #   any_repository_has_fulltext <lgl>, language <chr>, grants <list>,
## #   cited_by_count <int>, counts_by_year <list>, publication_year <int>, …
## 
## $data$works[[11]]
…
## 14 https://openale… Why … Why Female … <df>   "Pre… 2022-05-26       Work… http…
## 15 https://openale… Waar… Waarom is h… <df>   "Ams… 2023-09-01       Tijd… http…
## 16 https://openale… Do s… Do students… <df>   "Stu… 2023-10-24       Euro… http…
## 17 https://openale… Do f… Do female m… <df>   "Thi… 2019-06-11       Rout… http…
## 18 https://openale… Inte… Intergenera… <df>   "Thi… 2013-08-20       Tijd… http…
## # ℹ 30 more variables: host_organization <chr>, issn_l <chr>, url <chr>,
## #   pdf_url <chr>, license <chr>, version <chr>, first_page <chr>,
## #   last_page <chr>, volume <chr>, issue <chr>, is_oa <lgl>,
## #   is_oa_anywhere <lgl>, oa_status <chr>, oa_url <chr>,
## #   any_repository_has_fulltext <lgl>, language <chr>, grants <list>,
## #   cited_by_count <int>, counts_by_year <list>, publication_year <int>,
## #   cited_by_api_url <chr>, ids <list>, doi <chr>, type <chr>, …
## 
## $data$works[[12]]
## # A tibble: 84 × 38
##    id               title display_name author ab    publication_date so    so_id
##    <chr>            <chr> <chr>        <list> <chr> <chr>            <chr> <chr>
##  1 https://openale… Spor… Sport in th… <df>   Thes… 2020-04-02       Euro… http…
##  2 https://openale… Spor… Sport Clubs… <df>   This… 2015-01-01       Spor… http…
##  3 https://openale… Spor… Sport parti… <df>   In t… 2016-05-08       Leis… http…
##  4 https://openale… Unde… Understandi… <df>   <NA>  2011-01-01       <NA>  <NA> 
##  5 https://openale… The … The Impact … <df>   This… 2023-06-20       Inte… http…
##  6 https://openale… A la… A landscape… <df>   This… 2015-10-19       Inte… http…
##  7 https://openale… Theo… Theoretical… <df>   To u… 2015-01-01       Spor… http…
##  8 https://openale… A Cr… A Cross-Nat… <df>   The … 2015-01-01       Spor… http…
##  9 https://openale… Intr… Introductio… <df>   (201… 2011-01-01       Euro… http…
## 10 https://openale… Prov… Providing f… <df>   The … 2017-10-02       Euro… http…
## # ℹ 74 more rows
## # ℹ 30 more variables: host_organization <chr>, issn_l <chr>, url <chr>,
## #   pdf_url <chr>, license <chr>, version <chr>, first_page <chr>,
## #   last_page <chr>, volume <chr>, issue <chr>, is_oa <lgl>,
## #   is_oa_anywhere <lgl>, oa_status <chr>, oa_url <chr>,
## #   any_repository_has_fulltext <lgl>, language <chr>, grants <list>,
## #   cited_by_count <int>, counts_by_year <list>, publication_year <int>, …
## 
## $data$works[[13]]
## # A tibble: 32 × 38
##    id               title display_name author ab    publication_date so    so_id
##    <chr>            <chr> <chr>        <list> <chr> <chr>            <chr> <chr>
##  1 https://openale… The … The Diversi… <df>   Prio… 2020-04-14       Proc… http…
##  2 https://openale… Sour… Sources of … <df>   Most… 2017-05-03       Amer… http…
##  3 https://openale… Gend… Gendered kn… <df>   Wome… 2022-01-01       Rese… http…
##  4 https://openale… The … The Diversi… <df>   Prio… 2019-01-01       arXi… http…
##  5 https://openale… Beyo… Beyond the … <df>   Abst… 2020-04-22       Soci… http…
##  6 https://openale… Unde… Understandi… <df>   We s… 2016-07-01       Comp… http…
##  7 https://openale… A Ma… A Matter of… <df>   Abst… 2024-04-12       Quan… http…
##  8 https://openale… Does… Does unempl… <df>   Popu… 2020-10-01       Soci… http…
##  9 https://openale… Pred… Predicting … <df>   Soci… 2018-01-01       Big … http…
## 10 https://openale… Dive… Diversifyin… <df>   The … 2022-01-01       Soci… http…
## # ℹ 22 more rows
## # ℹ 30 more variables: host_organization <chr>, issn_l <chr>, url <chr>,
## #   pdf_url <chr>, license <chr>, version <chr>, first_page <chr>,
## #   last_page <chr>, volume <chr>, issue <chr>, is_oa <lgl>,
## #   is_oa_anywhere <lgl>, oa_status <chr>, oa_url <chr>,
## #   any_repository_has_fulltext <lgl>, language <chr>, grants <list>,
## #   cited_by_count <int>, counts_by_year <list>, publication_year <int>, …
## 
## $data$works[[14]]
…
