RSiena tutorial and Lab 5
…
sjr2024$Issn_1 <- paste0(substr(sjr2024$Issn_1, 1, 4), "-", substr(sjr2024$Issn_1, 5, 8))  # Hyphenate the codes to match the target df 
sjr2024$Issn_2 <- ifelse(is.na(sjr2024$Issn_2) == TRUE, NA, paste0(substr(sjr2024$Issn_2, 1, 4), "-", substr(sjr2024$Issn_2,
    5, 8)))  # Hyphenate the codes, but make non-existing second codes NA

df_pres_22 <- sjr2022 %>%
    select(Rank, Title, Issn_1, Issn_2, SJR, `SJR Quartile`, `H index`, `%Female`)  # Make a set that will be joined with df_works

df_pres_24 <- sjr2024 %>%
    select(Rank, Title, Issn_1, Issn_2, SJR, `SJR Quartile`, `H index`, `%Female`)  # Make a set that will be joined with df_works

df_pres_22

## # A tibble: 1,484 × 8
##     Rank Title                                Issn_1 Issn_2   SJR `SJR Quartile` `H index` `%Female`
##    <dbl> <chr>                                <chr>  <chr>  <dbl> <chr>              <dbl>     <dbl>
##  1     1 Administrative Science Quarterly     0001-… 1930-… 16.6  Q1                   218      35.1
##  2     2 Annual Review of Political Science   1094-… 1545-…  8.35 Q1                   138      39.6
##  3     3 American Political Science Review    1537-… 0003-…  7.73 Q1                   215      32.0
##  4     4 American Sociological Review         0003-… 1939-…  7.41 Q1                   240      37.9
##  5     5 Journal of Service Research          1094-… 1552-…  4.98 Q1                   156      46.2
##  6     6 American Journal of Political Scien… 0092-… 1540-…  4.96 Q1                   215      29.8
##  7     7 Political Analysis                   1047-… 1476-…  4.82 Q1                    89      14.0
##  8     8 International Organization           1531-… 0020-…  4.80 Q1                   168      38.5
##  9     9 Leadership Quarterly                 1048-… <NA>    4.33 Q1                   202      38  
## 10    10 Annual Review of Sociology           0360-… 1545-…  4.20 Q1                   216      50  
## # ℹ 1,474 more rows
…
